Sentiment_Ananlysis
…
#ggplot(kabir_singh_sentiment, aes(x=sentiment))

bing_word_counts <- tokens %>%
  inner_join(get_sentiments("bing")) %>%
  count(word, sentiment, sort = TRUE) %>%
  ungroup()

## Joining, by = "word"

bing_word_counts

## # A tibble: 1,540 x 3
##    word    sentiment     n
##    <chr>   <chr>     <int>
##  1 love    positive    912
##  2 like    positive    844
##  3 best    positive    819
##  4 good    positive    529
##  5 loved   positive    385
##  6 awesome positive    333
##  7 great   positive    313
##  8 amazing positive    299
##  9 well    positive    247
## 10 toxic   negative    216
## #  with 1,530 more rows
…
